tag,syncats
ADP,"(NP\NP)/NP,((S/NP)/(S/NP))/NP"
CONJ,"conj"
DET,"NP/N"
NOUN,"N"
PART,"(S/NP)/(S/NP),((S/NP)/NP)/((S/NP)/NP)"
PRON,"NP,(NP\NP)/(S/NP)"
PUNCT,".,S\S,NP\NP"
SCONJ,"conj"
VERB,"S/NP,(S/NP)/NP"
